[
    {
        "_id": "b-100",
        "_parentId": "a-10",
        "_type": "block",
        "_classes": "",
        "body": "",
        "displayTitle": "",
        "title": "",
        "_trackingId": 0
    },
    {
        "_id": "b-105",
        "_parentId": "a-10",
        "_type": "block",
        "_classes": "",
        "body": "",
        "displayTitle": "",
        "title": "",
        "_trackingId": 1
    },
    {
        "_id": "b-110",
        "_parentId": "a-10",
        "_type": "block",
        "_classes": "",
        "body": "",
        "displayTitle": "",
        "title": "",
        "_trackingId": 2
    },
    {
        "_id": "b-115",
        "_parentId": "a-10",
        "_type": "block",
        "_classes": "",
        "body": "",
        "displayTitle": "",
        "title": "",
        "_trackingId": 3
    },
    {
        "_id": "b-120",
        "_parentId": "a-10",
        "_type": "block",
        "_classes": "",
        "body": "",
        "displayTitle": "",
        "title": "",
        "_trackingId": 4
    },
    {
        "_id": "b-125",
        "_parentId": "a-10",
        "_type": "block",
        "_classes": "",
        "body": "",
        "displayTitle": "",
        "title": "",
        "_trackingId": 5
    },
    {
        "_id": "b-130",
        "_parentId": "a-10",
        "_type": "block",
        "_classes": "",
        "body": "",
        "displayTitle": "",
        "title": "",
        "_trackingId": 6
    },
    {
        "_id": "b-135",
        "_parentId": "a-10",
        "_type": "block",
        "_classes": "",
        "body": "",
        "displayTitle": "",
        "title": "",
        "_trackingId": 7
    },
    {
        "_id": "b-140",
        "_parentId": "a-10",
        "_type": "block",
        "_classes": "",
        "body": "",
        "displayTitle": "",
        "title": "",
        "_trackingId": 8
    },
    {
        "_id": "b-199",
        "_parentId": "a-10",
        "_type": "block",
        "_classes": "",
        "body": "",
        "displayTitle": "",
        "title": "",
        "_trackingId": 9
    },
    {
        "_id": "b-200",
        "_parentId": "a-20",
        "_type": "block",
        "_classes": "",
        "body": "",
        "displayTitle": "",
        "title": "",
        "_trackingId": 10
    },
    {
        "_id": "b-299",
        "_parentId": "a-20",
        "_type": "block",
        "_classes": "",
        "body": "",
        "displayTitle": "",
        "title": "",
        "_trackingId": 11
    },
    {
        "_id": "b-300",
        "_parentId": "a-30",
        "_type": "block",
        "_classes": "",
        "body": "",
        "displayTitle": "",
        "title": "",
        "_trackingId": 12
    },
    {
        "_id": "b-305",
        "_parentId": "a-30",
        "_type": "block",
        "_classes": "",
        "body": "",
        "displayTitle": "",
        "title": "",
        "_trackingId": 13
    },
    {
        "_id": "b-310",
        "_parentId": "a-30",
        "_type": "block",
        "_classes": "",
        "body": "",
        "displayTitle": "",
        "title": "",
        "_trackingId": 14
    },
    {
        "_id": "b-315",
        "_parentId": "a-30",
        "_type": "block",
        "_classes": "",
        "body": "",
        "displayTitle": "",
        "title": "",
        "_trackingId": 15
    },
    {
        "_id": "b-320",
        "_parentId": "a-30",
        "_type": "block",
        "_classes": "",
        "body": "",
        "displayTitle": "",
        "title": "",
        "_trackingId": 16
    },
    {
        "_id": "b-325",
        "_parentId": "a-30",
        "_type": "block",
        "_classes": "",
        "body": "",
        "displayTitle": "",
        "title": "",
        "_trackingId": 17
    },
    {
        "_id": "b-335",
        "_parentId": "a-30",
        "_type": "block",
        "_classes": "",
        "body": "",
        "displayTitle": "",
        "title": "",
        "_trackingId": 18
    },
    {
        "_id": "b-340",
        "_parentId": "a-30",
        "_type": "block",
        "_classes": "",
        "body": "",
        "displayTitle": "",
        "title": "",
        "_trackingId": 19
    },
    {
        "_id": "b-350",
        "_parentId": "a-30",
        "_type": "block",
        "_classes": "",
        "body": "",
        "displayTitle": "",
        "title": "",
        "_trackingId": 20
    },
    {
        "_id": "b-355",
        "_parentId": "a-30",
        "_type": "block",
        "_classes": "",
        "body": "",
        "displayTitle": "",
        "title": "",
        "_trackingId": 21
    },
    {
        "_id": "b-360",
        "_parentId": "a-30",
        "_type": "block",
        "_classes": "",
        "body": "",
        "displayTitle": "",
        "title": "",
        "_trackingId": 22
    },
    {
        "_id": "b-365",
        "_parentId": "a-30",
        "_type": "block",
        "_classes": "",
        "body": "",
        "displayTitle": "",
        "title": "",
        "_trackingId": 23
    },
    {
        "_id": "b-370",
        "_parentId": "a-30",
        "_type": "block",
        "_classes": "",
        "body": "",
        "displayTitle": "",
        "title": "",
        "_trackingId": 24
    },
    {
        "_id": "b-375",
        "_parentId": "a-30",
        "_type": "block",
        "_classes": "",
        "body": "",
        "displayTitle": "",
        "title": "",
        "_trackingId": 25
    },
    {
        "_id": "b-396",
        "_parentId": "a-30",
        "_type": "block",
        "_classes": "",
        "body": "",
        "displayTitle": "",
        "title": "",
        "_trackingId": 26
    },
    {
        "_id": "b-397",
        "_parentId": "a-30",
        "_type": "block",
        "_classes": "",
        "body": "",
        "displayTitle": "",
        "title": "",
        "_trackingId": 27
    },
    {
        "_id": "b-398",
        "_parentId": "a-30",
        "_type": "block",
        "_classes": "",
        "body": "",
        "displayTitle": "",
        "title": "",
        "_trackingId": 28
    },
    {
        "_id": "b-399",
        "_parentId": "a-35",
        "_type": "block",
        "_classes": "",
        "body": "",
        "displayTitle": "",
        "title": "",
        "_trackingId": 29
    },
    {
        "_id": "b-400",
        "_parentId": "a-40",
        "_type": "block",
        "_classes": "",
        "body": "",
        "displayTitle": "",
        "title": "",
        "_trackingId": 30
    },
    {
        "_id": "b-405",
        "_parentId": "a-40",
        "_type": "block",
        "_classes": "",
        "body": "",
        "displayTitle": "",
        "title": "",
        "_trackingId": 31
    },
    {
        "_id": "b-410",
        "_parentId": "a-40",
        "_type": "block",
        "_classes": "",
        "body": "",
        "displayTitle": "",
        "title": "",
        "_trackingId": 32
    },
    {
        "_id": "b-415",
        "_parentId": "a-40",
        "_type": "block",
        "_classes": "",
        "body": "",
        "displayTitle": "",
        "title": "",
        "_trackingId": 33
    },
    {
        "_id": "b-420",
        "_parentId": "a-40",
        "_type": "block",
        "_classes": "",
        "body": "",
        "displayTitle": "",
        "title": "",
        "_trackingId": 34
    },
    {
        "_id": "b-425",
        "_parentId": "a-40",
        "_type": "block",
        "_classes": "",
        "body": "",
        "displayTitle": "",
        "title": "",
        "_trackingId": 35
    },
    {
        "_id": "b-435",
        "_parentId": "a-40",
        "_type": "block",
        "_classes": "",
        "body": "",
        "displayTitle": "",
        "title": "",
        "_trackingId": 36
    },
    {
        "_id": "b-440",
        "_parentId": "a-40",
        "_type": "block",
        "_classes": "",
        "body": "",
        "displayTitle": "",
        "title": "",
        "_trackingId": 37
    },
    {
        "_id": "b-450",
        "_parentId": "a-40",
        "_type": "block",
        "_classes": "",
        "body": "",
        "displayTitle": "",
        "title": "",
        "_trackingId": 38
    },
    {
        "_id": "b-455",
        "_parentId": "a-40",
        "_type": "block",
        "_classes": "",
        "body": "",
        "displayTitle": "",
        "title": "",
        "_trackingId": 39
    },
    {
        "_id": "b-460",
        "_parentId": "a-40",
        "_type": "block",
        "_classes": "",
        "body": "",
        "displayTitle": "",
        "title": "",
        "_trackingId": 40
    },
    {
        "_id": "b-465",
        "_parentId": "a-40",
        "_type": "block",
        "_classes": "",
        "body": "",
        "displayTitle": "",
        "title": "",
        "_trackingId": 41
    },
    {
        "_id": "b-470",
        "_parentId": "a-40",
        "_type": "block",
        "_classes": "",
        "body": "",
        "displayTitle": "",
        "title": "",
        "_trackingId": 42
    },
    {
        "_id": "b-475",
        "_parentId": "a-40",
        "_type": "block",
        "_classes": "",
        "body": "",
        "displayTitle": "",
        "title": "",
        "_trackingId": 43
    },
    {
        "_id": "b-497",
        "_parentId": "a-40",
        "_type": "block",
        "_classes": "",
        "body": "",
        "displayTitle": "",
        "title": "",
        "_trackingId": 44
    },
    {
        "_id": "b-498",
        "_parentId": "a-40",
        "_type": "block",
        "_classes": "",
        "body": "",
        "displayTitle": "",
        "title": "",
        "_trackingId": 45
    },
    {
        "_id": "b-499",
        "_parentId": "a-40",
        "_type": "block",
        "_classes": "",
        "body": "",
        "displayTitle": "",
        "title": "",
        "_trackingId": 46
    },
    {
        "_id": "b-500",
        "_parentId": "a-50",
        "_type": "block",
        "_classes": "",
        "body": "",
        "displayTitle": "",
        "title": "",
        "_trackingId": 47
    },
    {
        "_id": "b-505",
        "_parentId": "a-50",
        "_type": "block",
        "_classes": "",
        "body": "",
        "displayTitle": "",
        "title": "",
        "_trackingId": 48
    },
    {
        "_id": "b-510",
        "_parentId": "a-50",
        "_type": "block",
        "_classes": "",
        "body": "",
        "displayTitle": "",
        "title": "",
        "_trackingId": 49
    },
    {
        "_id": "b-515",
        "_parentId": "a-50",
        "_type": "block",
        "_classes": "",
        "body": "",
        "displayTitle": "",
        "title": "",
        "_trackingId": 50
    },
    {
        "_id": "b-520",
        "_parentId": "a-50",
        "_type": "block",
        "_classes": "",
        "body": "",
        "displayTitle": "",
        "title": "",
        "_trackingId": 51
    },
    {
        "_id": "b-525",
        "_parentId": "a-50",
        "_type": "block",
        "_classes": "",
        "body": "",
        "displayTitle": "",
        "title": "",
        "_trackingId": 52
    },
    {
        "_id": "b-535",
        "_parentId": "a-50",
        "_type": "block",
        "_classes": "",
        "body": "",
        "displayTitle": "",
        "title": "",
        "_trackingId": 53
    },
    {
        "_id": "b-540",
        "_parentId": "a-50",
        "_type": "block",
        "_classes": "",
        "body": "",
        "displayTitle": "",
        "title": "",
        "_trackingId": 54
    },
    {
        "_id": "b-545",
        "_parentId": "a-50",
        "_type": "block",
        "_classes": "",
        "body": "",
        "displayTitle": "",
        "title": "",
        "_trackingId": 103
    },
    {
        "_id": "b-550",
        "_parentId": "a-50",
        "_type": "block",
        "_classes": "",
        "body": "",
        "displayTitle": "",
        "title": "",
        "_trackingId": 55
    },
    {
        "_id": "b-555",
        "_parentId": "a-50",
        "_type": "block",
        "_classes": "",
        "body": "",
        "displayTitle": "",
        "title": "",
        "_trackingId": 56
    },
    {
        "_id": "b-560",
        "_parentId": "a-50",
        "_type": "block",
        "_classes": "",
        "body": "",
        "displayTitle": "",
        "title": "",
        "_trackingId": 57
    },
    {
        "_id": "b-565",
        "_parentId": "a-50",
        "_type": "block",
        "_classes": "",
        "body": "",
        "displayTitle": "",
        "title": "",
        "_trackingId": 58
    },
    {
        "_id": "b-570",
        "_parentId": "a-50",
        "_type": "block",
        "_classes": "",
        "body": "",
        "displayTitle": "",
        "title": "",
        "_trackingId": 59
    },
    {
        "_id": "b-575",
        "_parentId": "a-50",
        "_type": "block",
        "_classes": "",
        "body": "",
        "displayTitle": "",
        "title": "",
        "_trackingId": 60
    },
    {
        "_id": "b-596",
        "_parentId": "a-50",
        "_type": "block",
        "_classes": "",
        "body": "",
        "displayTitle": "",
        "title": "",
        "_trackingId": 61
    },
    {
        "_id": "b-597",
        "_parentId": "a-50",
        "_type": "block",
        "_classes": "",
        "body": "",
        "displayTitle": "",
        "title": "",
        "_trackingId": 62
    },
    {
        "_id": "b-598",
        "_parentId": "a-50",
        "_type": "block",
        "_classes": "",
        "body": "",
        "displayTitle": "",
        "title": "",
        "_trackingId": 63
    },
    {
        "_id": "b-599",
        "_parentId": "a-50",
        "_type": "block",
        "_classes": "",
        "body": "",
        "displayTitle": "",
        "title": "",
        "_trackingId": 64
    },
    {
        "_id": "b-600",
        "_parentId": "a-60",
        "_type": "block",
        "_classes": "",
        "body": "",
        "displayTitle": "",
        "title": "",
        "_trackingId": 65
    },
    {
        "_id": "b-605",
        "_parentId": "a-60",
        "_type": "block",
        "_classes": "",
        "body": "",
        "displayTitle": "",
        "title": "",
        "_trackingId": 66
    },
    {
        "_id": "b-610",
        "_parentId": "a-60",
        "_type": "block",
        "_classes": "",
        "body": "",
        "displayTitle": "",
        "title": "",
        "_trackingId": 67
    },
    {
        "_id": "b-615",
        "_parentId": "a-60",
        "_type": "block",
        "_classes": "",
        "body": "",
        "displayTitle": "",
        "title": "",
        "_trackingId": 68
    },
    {
        "_id": "b-620",
        "_parentId": "a-60",
        "_type": "block",
        "_classes": "",
        "body": "",
        "displayTitle": "",
        "title": "",
        "_trackingId": 69
    },
    {
        "_id": "b-625",
        "_parentId": "a-60",
        "_type": "block",
        "_classes": "",
        "body": "",
        "displayTitle": "",
        "title": "",
        "_trackingId": 70
    },
    {
        "_id": "b-635",
        "_parentId": "a-60",
        "_type": "block",
        "_classes": "",
        "body": "",
        "displayTitle": "",
        "title": "",
        "_trackingId": 71
    },
    {
        "_id": "b-640",
        "_parentId": "a-60",
        "_type": "block",
        "_classes": "",
        "body": "",
        "displayTitle": "",
        "title": "",
        "_trackingId": 72
    },
    {
        "_id": "b-650",
        "_parentId": "a-60",
        "_type": "block",
        "_classes": "",
        "body": "",
        "displayTitle": "",
        "title": "",
        "_trackingId": 73
    },
    {
        "_id": "b-655",
        "_parentId": "a-60",
        "_type": "block",
        "_classes": "",
        "body": "",
        "displayTitle": "",
        "title": "",
        "_trackingId": 74
    },
    {
        "_id": "b-660",
        "_parentId": "a-60",
        "_type": "block",
        "_classes": "",
        "body": "",
        "displayTitle": "",
        "title": "",
        "_trackingId": 75
    },
    {
        "_id": "b-665",
        "_parentId": "a-60",
        "_type": "block",
        "_classes": "",
        "body": "",
        "displayTitle": "",
        "title": "",
        "_trackingId": 76
    },
    {
        "_id": "b-670",
        "_parentId": "a-60",
        "_type": "block",
        "_classes": "",
        "body": "",
        "displayTitle": "",
        "title": "",
        "_trackingId": 77
    },
    {
        "_id": "b-697",
        "_parentId": "a-60",
        "_type": "block",
        "_classes": "",
        "body": "",
        "displayTitle": "",
        "title": "",
        "_trackingId": 78
    },
    {
        "_id": "b-698",
        "_parentId": "a-60",
        "_type": "block",
        "_classes": "",
        "body": "",
        "displayTitle": "",
        "title": "",
        "_trackingId": 79
    },
    {
        "_id": "b-699",
        "_parentId": "a-60",
        "_type": "block",
        "_classes": "",
        "body": "",
        "displayTitle": "",
        "title": "",
        "_trackingId": 80
    },
    {
        "_id": "b-700",
        "_parentId": "a-70",
        "_type": "block",
        "_classes": "",
        "body": "",
        "displayTitle": "",
        "title": "",
        "_trackingId": 81
    },
    {
        "_id": "b-705",
        "_parentId": "a-70",
        "_type": "block",
        "_classes": "",
        "body": "",
        "displayTitle": "",
        "title": "",
        "_trackingId": 82
    },
    {
        "_id": "b-710",
        "_parentId": "a-70",
        "_type": "block",
        "_classes": "",
        "body": "",
        "displayTitle": "",
        "title": "",
        "_trackingId": 83
    },
    {
        "_id": "b-715",
        "_parentId": "a-70",
        "_type": "block",
        "_classes": "",
        "body": "",
        "displayTitle": "",
        "title": "",
        "_trackingId": 84
    },
    {
        "_id": "b-720",
        "_parentId": "a-70",
        "_type": "block",
        "_classes": "",
        "body": "",
        "displayTitle": "",
        "title": "",
        "_trackingId": 85
    },
    {
        "_id": "b-725",
        "_parentId": "a-70",
        "_type": "block",
        "_classes": "",
        "body": "",
        "displayTitle": "",
        "title": "",
        "_trackingId": 86
    },
    {
        "_id": "b-735",
        "_parentId": "a-70",
        "_type": "block",
        "_classes": "",
        "body": "",
        "displayTitle": "",
        "title": "",
        "_trackingId": 87
    },
    {
        "_id": "b-740",
        "_parentId": "a-70",
        "_type": "block",
        "_classes": "",
        "body": "",
        "displayTitle": "",
        "title": "",
        "_trackingId": 88
    },
    {
        "_id": "b-750",
        "_parentId": "a-70",
        "_type": "block",
        "_classes": "",
        "body": "",
        "displayTitle": "",
        "title": "",
        "_trackingId": 89
    },
    {
        "_id": "b-755",
        "_parentId": "a-70",
        "_type": "block",
        "_classes": "",
        "body": "",
        "displayTitle": "",
        "title": "",
        "_trackingId": 90
    },
    {
        "_id": "b-760",
        "_parentId": "a-70",
        "_type": "block",
        "_classes": "",
        "body": "",
        "displayTitle": "",
        "title": "",
        "_trackingId": 91
    },
    {
        "_id": "b-765",
        "_parentId": "a-70",
        "_type": "block",
        "_classes": "",
        "body": "",
        "displayTitle": "",
        "title": "",
        "_trackingId": 92
    },
    {
        "_id": "b-770",
        "_parentId": "a-70",
        "_type": "block",
        "_classes": "",
        "body": "",
        "displayTitle": "",
        "title": "",
        "_trackingId": 93
    },
    {
        "_id": "b-775",
        "_parentId": "a-70",
        "_type": "block",
        "_classes": "",
        "body": "",
        "displayTitle": "",
        "title": "",
        "_trackingId": 94
    },
    {
        "_id": "b-796",
        "_parentId": "a-70",
        "_type": "block",
        "_classes": "",
        "body": "",
        "displayTitle": "",
        "title": "",
        "_trackingId": 95
    },
    {
        "_id": "b-797",
        "_parentId": "a-70",
        "_type": "block",
        "_classes": "",
        "body": "",
        "displayTitle": "",
        "title": "",
        "_trackingId": 96
    },
    {
        "_id": "b-798",
        "_parentId": "a-70",
        "_type": "block",
        "_classes": "",
        "body": "",
        "displayTitle": "",
        "title": "",
        "_trackingId": 97
    },
    {
        "_id": "b-799",
        "_parentId": "a-70",
        "_type": "block",
        "_classes": "",
        "body": "",
        "displayTitle": "",
        "title": "",
        "_trackingId": 98
    },
    {
        "_id": "b-801",
        "_parentId": "a-80",
        "_type": "block",
        "_classes": "",
        "body": "",
        "displayTitle": "",
        "title": "",
        "_trackingId": 99
    },
    {
        "_id": "b-802",
        "_parentId": "a-80",
        "_type": "block",
        "_classes": "",
        "body": "",
        "displayTitle": "",
        "title": "",
        "_trackingId": 100
    },
    {
        "_id": "b-803",
        "_parentId": "a-80",
        "_type": "block",
        "_classes": "",
        "body": "",
        "displayTitle": "",
        "title": "",
        "_trackingId": 101
    },
    {
        "_id": "b-899",
        "_parentId": "a-80",
        "_type": "block",
        "_classes": "",
        "body": "",
        "displayTitle": "",
        "title": "",
        "_trackingId": 102
    }
]